Spotify Analysis
…
Q3: Which words are most unique to each song in the playlist?

In order to see which words were most unique to each song in the April 2023 playlist, I arranged the words by frequency and found the tf_idf for each word.

apr_freq <- apr_tidy |>
  group_by(track.name) |>
  count(word, sort = TRUE)
apr_idf <- apr_freq |>
  bind_tf_idf(word, track.name, n)
apr_idf |>
  arrange(desc(tf_idf)) |>
  top_n(10, n)

# A tibble: 142 × 6
# Groups:   track.name [9]
   track.name      word          n     tf   idf tf_idf
   <chr>           <chr>     <int>  <dbl> <dbl>  <dbl>
 1 Mercury         ba           96 0.327  2.20   0.717
 2 Temporary       temporary    14 0.157  2.20   0.346
 3 Good For Now    ooh          39 0.394  0.811  0.319
 4 Mercury         ah           42 0.143  2.20   0.314
 5 Mess It Up      happen       12 0.121  1.50   0.182
 6 Everytime       yuh           5 0.0758 2.20   0.166
 7 Good For Now    dreaming      7 0.0707 2.20   0.155
 8 Search & Rescue mami         12 0.0682 2.20   0.150
 9 Everytime       bringing      4 0.0606 2.20   0.133
10 Fever           uh            8 0.0842 1.50   0.127
# … with 132 more rows
…
